%YAML 1.1
%TAG !u! tag:unity3d.com,2011:
--- !u!114 &11400000
MonoBehaviour:
  m_ObjectHideFlags: 0
  m_CorrespondingSourceObject: {fileID: 0}
  m_PrefabInstance: {fileID: 0}
  m_PrefabAsset: {fileID: 0}
  m_GameObject: {fileID: 0}
  m_Enabled: 1
  m_EditorHideFlags: 0
  m_Script: {fileID: 11500000, guid: 026f40974d5f0d24ab25d874bcd6fa9e, type: 3}
  m_Name: London_bridge
  m_EditorClassIdentifier: 
  m_Sprite: {fileID: 0}
  m_Color: {r: 1, g: 1, b: 1, a: 1}
  m_Transform:
    e00: 1
    e01: 0
    e02: 0
    e03: 0
    e10: 0
    e11: 1
    e12: 0
    e13: 0
    e20: 0
    e21: 0
    e22: 1
    e23: 0
    e30: 0
    e31: 0
    e32: 0
    e33: 1
  m_InstancedGameObject: {fileID: 0}
  m_Flags: 1
  m_ColliderType: 1
  m_DefaultSprite: {fileID: 21300000, guid: 6d692b6aecf120046b83e3e3dcb28dc2, type: 3}
  m_DefaultColliderType: 1
  m_TilingRules:
  - m_Neighbors: 0000000000000000000000000100000001000000000000000200000000000000
    m_Sprites:
    - {fileID: 21300000, guid: 6d692b6aecf120046b83e3e3dcb28dc2, type: 3}
    m_AnimationSpeed: 1
    m_PerlinScale: 0.5
    m_RuleTransform: 0
    m_Output: 0
    m_ColliderType: 1
    m_RandomTransform: 0
  - m_Neighbors: 0000000000000000000000000200000001000000000000000200000000000000
    m_Sprites:
    - {fileID: 21300000, guid: f8f08ec80317ed64c8acbd51afddff08, type: 3}
    m_AnimationSpeed: 1
    m_PerlinScale: 0.5
    m_RuleTransform: 0
    m_Output: 0
    m_ColliderType: 1
    m_RandomTransform: 0
  - m_Neighbors: 0000000000000000000000000100000002000000000000000200000000000000
    m_Sprites:
    - {fileID: 21300000, guid: 513e6431f45c4d74aad2ae224142b631, type: 3}
    m_AnimationSpeed: 1
    m_PerlinScale: 0.5
    m_RuleTransform: 0
    m_Output: 0
    m_ColliderType: 1
    m_RandomTransform: 0
  - m_Neighbors: 0000000000000000000000000100000001000000000000000100000000000000
    m_Sprites:
    - {fileID: 21300000, guid: 6ecb06a8f35428741b41ea46d7fd1b19, type: 3}
    m_AnimationSpeed: 1
    m_PerlinScale: 0.5
    m_RuleTransform: 0
    m_Output: 0
    m_ColliderType: 0
    m_RandomTransform: 0
  - m_Neighbors: 0000000000000000000000000100000002000000000000000100000000000000
    m_Sprites:
    - {fileID: 21300000, guid: b5a4f254b85e6c3458b05ef83328c423, type: 3}
    m_AnimationSpeed: 1
    m_PerlinScale: 0.5
    m_RuleTransform: 0
    m_Output: 0
    m_ColliderType: 0
    m_RandomTransform: 0
  - m_Neighbors: 0000000000000000000000000200000001000000000000000100000000000000
    m_Sprites:
    - {fileID: 21300000, guid: 9b4793fb0f9d1c74cb0fa29ad8039e53, type: 3}
    m_AnimationSpeed: 1
    m_PerlinScale: 0.5
    m_RuleTransform: 0
    m_Output: 0
    m_ColliderType: 0
    m_RandomTransform: 0
