%YAML 1.1
%TAG !u! tag:unity3d.com,2011:
--- !u!114 &11400000
MonoBehaviour:
  m_ObjectHideFlags: 0
  m_CorrespondingSourceObject: {fileID: 0}
  m_PrefabInstance: {fileID: 0}
  m_PrefabAsset: {fileID: 0}
  m_GameObject: {fileID: 0}
  m_Enabled: 1
  m_EditorHideFlags: 0
  m_Script: {fileID: 11500000, guid: 62833f75356de4b42b93d220a94cc293, type: 3}
  m_Name: LondonLevelData_05
  m_EditorClassIdentifier: 
  startChunk: {fileID: 980198438644446625, guid: 6bb165455e664d6459f02604d694fa5d,
    type: 3}
  levelChunks:
  - {fileID: 2247745337164220711, guid: 1786efe089abeeb40b3753aae0a4ccaf, type: 3}
  - {fileID: 2247745337164220711, guid: 1786efe089abeeb40b3753aae0a4ccaf, type: 3}
  - {fileID: 2247745337164220711, guid: 1786efe089abeeb40b3753aae0a4ccaf, type: 3}
  stars: 0
