%YAML 1.1
%TAG !u! tag:unity3d.com,2011:
--- !u!1001 &3818159702185290384
PrefabInstance:
  m_ObjectHideFlags: 0
  serializedVersion: 2
  m_Modification:
    m_TransformParent: {fileID: 0}
    m_Modifications:
    - target: {fileID: 1729908531363951817, guid: 1ed4b4f681e1ebe4dbd25dbe671497b4,
        type: 3}
      propertyPath: m_Name
      value: PaintItemTrainCar
      objectReference: {fileID: 0}
    - target: {fileID: 1729908531363951830, guid: 1ed4b4f681e1ebe4dbd25dbe671497b4,
        type: 3}
      propertyPath: m_Size.x
      value: 4.59375
      objectReference: {fileID: 0}
    - target: {fileID: 1729908531363951830, guid: 1ed4b4f681e1ebe4dbd25dbe671497b4,
        type: 3}
      propertyPath: m_Size.y
      value: 2
      objectReference: {fileID: 0}
    - target: {fileID: 1729908531363951830, guid: 1ed4b4f681e1ebe4dbd25dbe671497b4,
        type: 3}
      propertyPath: m_Offset.x
      value: 0
      objectReference: {fileID: 0}
    - target: {fileID: 1729908531363951830, guid: 1ed4b4f681e1ebe4dbd25dbe671497b4,
        type: 3}
      propertyPath: m_SpriteTilingProperty.oldSize.x
      value: 5.88
      objectReference: {fileID: 0}
    - target: {fileID: 1729908531363951830, guid: 1ed4b4f681e1ebe4dbd25dbe671497b4,
        type: 3}
      propertyPath: m_SpriteTilingProperty.newSize.x
      value: 5.88
      objectReference: {fileID: 0}
    - target: {fileID: 1729908531363951831, guid: 1ed4b4f681e1ebe4dbd25dbe671497b4,
        type: 3}
      propertyPath: m_LocalPosition.x
      value: -7.6
      objectReference: {fileID: 0}
    - target: {fileID: 1729908531363951831, guid: 1ed4b4f681e1ebe4dbd25dbe671497b4,
        type: 3}
      propertyPath: m_LocalPosition.y
      value: 1.92
      objectReference: {fileID: 0}
    - target: {fileID: 1729908531363951831, guid: 1ed4b4f681e1ebe4dbd25dbe671497b4,
        type: 3}
      propertyPath: m_LocalPosition.z
      value: 0
      objectReference: {fileID: 0}
    - target: {fileID: 1729908531363951831, guid: 1ed4b4f681e1ebe4dbd25dbe671497b4,
        type: 3}
      propertyPath: m_LocalRotation.x
      value: 0
      objectReference: {fileID: 0}
    - target: {fileID: 1729908531363951831, guid: 1ed4b4f681e1ebe4dbd25dbe671497b4,
        type: 3}
      propertyPath: m_LocalRotation.y
      value: 0
      objectReference: {fileID: 0}
    - target: {fileID: 1729908531363951831, guid: 1ed4b4f681e1ebe4dbd25dbe671497b4,
        type: 3}
      propertyPath: m_LocalRotation.z
      value: 0
      objectReference: {fileID: 0}
    - target: {fileID: 1729908531363951831, guid: 1ed4b4f681e1ebe4dbd25dbe671497b4,
        type: 3}
      propertyPath: m_LocalRotation.w
      value: 1
      objectReference: {fileID: 0}
    - target: {fileID: 1729908531363951831, guid: 1ed4b4f681e1ebe4dbd25dbe671497b4,
        type: 3}
      propertyPath: m_RootOrder
      value: 0
      objectReference: {fileID: 0}
    - target: {fileID: 1729908531363951831, guid: 1ed4b4f681e1ebe4dbd25dbe671497b4,
        type: 3}
      propertyPath: m_LocalEulerAnglesHint.x
      value: 0
      objectReference: {fileID: 0}
    - target: {fileID: 1729908531363951831, guid: 1ed4b4f681e1ebe4dbd25dbe671497b4,
        type: 3}
      propertyPath: m_LocalEulerAnglesHint.y
      value: 0
      objectReference: {fileID: 0}
    - target: {fileID: 1729908531363951831, guid: 1ed4b4f681e1ebe4dbd25dbe671497b4,
        type: 3}
      propertyPath: m_LocalEulerAnglesHint.z
      value: 0
      objectReference: {fileID: 0}
    - target: {fileID: 7959704451083735258, guid: 1ed4b4f681e1ebe4dbd25dbe671497b4,
        type: 3}
      propertyPath: texture
      value: 
      objectReference: {fileID: 2800000, guid: 65cc17536a23f7b40bae8425ff79bf2d, type: 3}
    - target: {fileID: 228290030657939201, guid: 1ed4b4f681e1ebe4dbd25dbe671497b4,
        type: 3}
      propertyPath: m_Sprite
      value: 
      objectReference: {fileID: 21300000, guid: df19f770ac8c6d34690be63479a7a6b7,
        type: 3}
    - target: {fileID: 4037028160454432113, guid: 1ed4b4f681e1ebe4dbd25dbe671497b4,
        type: 3}
      propertyPath: m_Sprite
      value: 
      objectReference: {fileID: 21300000, guid: 65cc17536a23f7b40bae8425ff79bf2d,
        type: 3}
    m_RemovedComponents: []
  m_SourcePrefab: {fileID: 100100000, guid: 1ed4b4f681e1ebe4dbd25dbe671497b4, type: 3}
