%YAML 1.1
%TAG !u! tag:unity3d.com,2011:
--- !u!1001 &5413515363339665903
PrefabInstance:
  m_ObjectHideFlags: 0
  serializedVersion: 2
  m_Modification:
    m_TransformParent: {fileID: 0}
    m_Modifications:
    - target: {fileID: 7281206246692235318, guid: a25e6b85153acb1439b7f35811fd4805,
        type: 3}
      propertyPath: texture
      value: 
      objectReference: {fileID: 2800000, guid: caf575d96c2ad144f801b96814a1f5b4, type: 3}
    - target: {fileID: 1516798584124921600, guid: a25e6b85153acb1439b7f35811fd4805,
        type: 3}
      propertyPath: m_Name
      value: ColorizeHouseLeft
      objectReference: {fileID: 0}
    - target: {fileID: 7410220595582763859, guid: a25e6b85153acb1439b7f35811fd4805,
        type: 3}
      propertyPath: m_Sprite
      value: 
      objectReference: {fileID: 21300000, guid: caf575d96c2ad144f801b96814a1f5b4,
        type: 3}
    - target: {fileID: 8958247885031053389, guid: a25e6b85153acb1439b7f35811fd4805,
        type: 3}
      propertyPath: m_LocalPosition.x
      value: 0
      objectReference: {fileID: 0}
    - target: {fileID: 8958247885031053389, guid: a25e6b85153acb1439b7f35811fd4805,
        type: 3}
      propertyPath: m_LocalPosition.y
      value: 0
      objectReference: {fileID: 0}
    - target: {fileID: 8958247885031053389, guid: a25e6b85153acb1439b7f35811fd4805,
        type: 3}
      propertyPath: m_LocalPosition.z
      value: 0
      objectReference: {fileID: 0}
    - target: {fileID: 8958247885031053389, guid: a25e6b85153acb1439b7f35811fd4805,
        type: 3}
      propertyPath: m_LocalRotation.x
      value: -0
      objectReference: {fileID: 0}
    - target: {fileID: 8958247885031053389, guid: a25e6b85153acb1439b7f35811fd4805,
        type: 3}
      propertyPath: m_LocalRotation.y
      value: -0
      objectReference: {fileID: 0}
    - target: {fileID: 8958247885031053389, guid: a25e6b85153acb1439b7f35811fd4805,
        type: 3}
      propertyPath: m_LocalRotation.z
      value: -0
      objectReference: {fileID: 0}
    - target: {fileID: 8958247885031053389, guid: a25e6b85153acb1439b7f35811fd4805,
        type: 3}
      propertyPath: m_LocalRotation.w
      value: 1
      objectReference: {fileID: 0}
    - target: {fileID: 8958247885031053389, guid: a25e6b85153acb1439b7f35811fd4805,
        type: 3}
      propertyPath: m_RootOrder
      value: 0
      objectReference: {fileID: 0}
    - target: {fileID: 8958247885031053389, guid: a25e6b85153acb1439b7f35811fd4805,
        type: 3}
      propertyPath: m_LocalEulerAnglesHint.x
      value: 0
      objectReference: {fileID: 0}
    - target: {fileID: 8958247885031053389, guid: a25e6b85153acb1439b7f35811fd4805,
        type: 3}
      propertyPath: m_LocalEulerAnglesHint.y
      value: 0
      objectReference: {fileID: 0}
    - target: {fileID: 8958247885031053389, guid: a25e6b85153acb1439b7f35811fd4805,
        type: 3}
      propertyPath: m_LocalEulerAnglesHint.z
      value: 0
      objectReference: {fileID: 0}
    m_RemovedComponents: []
  m_SourcePrefab: {fileID: 100100000, guid: a25e6b85153acb1439b7f35811fd4805, type: 3}
